{
  "id": "dd88151.f2277e8",
  "type": "subflow",
  "name": "FourSquare",
  "info": "",
  "in": [
    {
      "x": 254.21427726745605,
      "y": 323.50000381469727,
      "wires": [
        {
          "id": "64c0281f.9b3fd8"
        }
      ]
    }
  ],
  "out": [
    {
      "x": 2105.5,
      "y": 279.5,
      "wires": [
        {
          "id": "7a5a37a6.85a5c8",
          "port": 0
        }
      ]
    },
    {
      "x": 644.5,
      "y": 364.5,
      "wires": [
        {
          "id": "64c0281f.9b3fd8",
          "port": 1
        }
      ]
    }
  ],
  "flow": [
    {
      "id": "8c0387ca.73fc78",
      "type": "sqlarray",
      "z": "dd88151.f2277e8",
      "columns": "[]"
    },
    {
      "id": "22cf868d.dd307a",
      "type": "sqlarray",
      "z": "dd88151.f2277e8",
      "columns": "[\"network\",\"venue\"]"
    },
    {
      "id": "f5772527.0a88d8",
      "type": "sqlarray",
      "z": "dd88151.f2277e8",
      "columns": "[\"created_at\"]"
    },
    {
      "id": "64c0281f.9b3fd8",
      "type": "function",
      "z": "dd88151.f2277e8",
      "name": "Prepare Credentials and ID",
      "func": "if (!(msg.payload&&msg.payload.venue_id&&(msg.payload.venue_id.trim() !== \"\"))) {\n    return [null,msg];\n}\nmsg.info = {\n    venue   : msg.venue,\n    id      : msg.payload.venue_id\n};\nmsg.payload = {\n    venue   : msg.venue,\n    network : 'foursquare'\n};\nreturn [msg,null];",
      "outputs": "2",
      "noerr": 0,
      "x": 450,
      "y": 323.5,
      "wires": [
        [
          "951028d5.6aefd8"
        ],
        []
      ]
    },
    {
      "id": "951028d5.6aefd8",
      "type": "SQL Select",
      "z": "dd88151.f2277e8",
      "sqldb": "4532268e.bacdd8",
      "name": "Get last inserted tip",
      "table": "reviews",
      "limit": "1",
      "offset": "0",
      "columns": "f5772527.0a88d8",
      "where": "22cf868d.dd307a",
      "group": "8c0387ca.73fc78",
      "order": "f5772527.0a88d8",
      "orderdir": "DESC",
      "requireAll": 1,
      "noWhere": 0,
      "x": 711.5000305175781,
      "y": 304.07142639160156,
      "wires": [
        [
          "96fc51cf.6903b"
        ]
      ]
    },
    {
      "id": "96fc51cf.6903b",
      "type": "function",
      "z": "dd88151.f2277e8",
      "name": "Set Params",
      "func": "//Set how far go with the import\nmsg.lastTip =   (new Date(msg.payload.length\n                          ? msg.payload[0].created_at\n                          : '2015-10-01')\n                ).getTime()/1000;\n//Set the id of the venue to obtain\nmsg.payload = {\n    id : msg.info.id\n};\nreturn msg;",
      "outputs": 1,
      "noerr": 0,
      "x": 896.0000305175781,
      "y": 304.07142639160156,
      "wires": [
        [
          "ffaef350.00511"
        ]
      ]
    },
    {
      "id": "ffaef350.00511",
      "type": "Combine Start",
      "z": "dd88151.f2277e8",
      "name": "",
      "number": "2",
      "waitArray": 0,
      "x": 1064.2142162322998,
      "y": 303.49999809265137,
      "wires": [
        [
          "94b7112a.6b48f",
          "1e731750.e18ce9"
        ]
      ]
    },
    {
      "id": "94b7112a.6b48f",
      "type": "Foursquare",
      "z": "dd88151.f2277e8",
      "name": "Get average rating",
      "resource": "venues/:id",
      "version": "2016-01-28",
      "creds": "afa79639.505868",
      "x": 1263.9285888671875,
      "y": 343.3571472167969,
      "wires": [
        [
          "19597729.e6a689"
        ]
      ]
    },
    {
      "id": "19597729.e6a689",
      "type": "subflow:be533871.41acc8",
      "z": "dd88151.f2277e8",
      "name": "",
      "x": 1509.714370727539,
      "y": 344.2857208251953,
      "wires": [
        [
          "7a5a37a6.85a5c8"
        ]
      ]
    },
    {
      "id": "7a5a37a6.85a5c8",
      "type": "Combine End",
      "z": "dd88151.f2277e8",
      "name": "",
      "saveOutput": false,
      "x": 1969.5,
      "y": 279.5,
      "wires": [
        []
      ]
    },
    {
      "id": "1e731750.e18ce9",
      "type": "function",
      "z": "dd88151.f2277e8",
      "name": "Sorting",
      "func": "if (!msg.foursquareArgs) {\n    msg.foursquareArgs = {};\n}\nmsg.foursquareArgs.sort = 'recent';\nreturn msg;",
      "outputs": 1,
      "noerr": 0,
      "x": 1318.500015258789,
      "y": 285.5000009536743,
      "wires": [
        [
          "aea9f281.51561"
        ]
      ]
    },
    {
      "id": "aea9f281.51561",
      "type": "Foursquare",
      "z": "dd88151.f2277e8",
      "name": "Obtain tips",
      "resource": "venues/:id/tips",
      "version": "2016-01-28",
      "creds": "afa79639.505868",
      "x": 1467.5,
      "y": 285.5,
      "wires": [
        [
          "c89ec486.376138"
        ]
      ]
    },
    {
      "id": "c89ec486.376138",
      "type": "subflow:e1b44392.1e4bc",
      "z": "dd88151.f2277e8",
      "name": "",
      "x": 1402.7857093811035,
      "y": 158.85713958740234,
      "wires": [
        [
          "7a5a37a6.85a5c8"
        ],
        [
          "1e731750.e18ce9"
        ],
        [
          "20bf4111.df40be"
        ]
      ]
    },
    {
      "id": "20bf4111.df40be",
      "type": "function",
      "z": "dd88151.f2277e8",
      "name": "TODO: Do something with the error",
      "func": "\nreturn msg;",
      "outputs": 1,
      "noerr": 0,
      "x": 1765.5,
      "y": 109.5,
      "wires": [
        [
          "7a5a37a6.85a5c8"
        ]
      ]
    }
  ]
}